Series de Tiempo - Bitcoin
…
tibble_ldata <- tibble(df_ldata)
####Primera aproximación del ajuste STL
tibble_ldata%>%timetk::plot_time_series(Fecha, logdata, 
                   .interactive = TRUE,
                   .plotly_slider = TRUE)

#####Ajuste STL
#Note que obtenemos un objeto adicional en tibble_logpasajeros con Logpasa_ajus con parámetros que se pueden mover.
logdata_ajus <- smooth_vec(logdata,span = 0.75, degree = 2)
tibble_ldata%>%dplyr::mutate(logdata_ajus)

# A tibble: 1,826 × 3
   Fecha      logdata logdata_ajus
   <date>       <dbl>        <dbl>
 1 2017-01-01    6.91         6.90
 2 2017-01-02    6.92         6.91
 3 2017-01-03    6.94         6.91
 4 2017-01-04    7.02         6.92
 5 2017-01-05    6.90         6.92
 6 2017-01-06    6.79         6.93
 7 2017-01-07    6.80         6.94
 8 2017-01-08    6.81         6.94
 9 2017-01-09    6.80         6.95
10 2017-01-10    6.81         6.96
# ℹ 1,816 more rows
…
