Series de Tiempo - Descriptiva-Serie-Exportaciones
…
2 Descomposición STL

####Primera aproximación del ajuste STL
lexportaciones_tbl%>%timetk::plot_time_series(Fecha, lexportaciones, 
                   .interactive = TRUE,
                   .plotly_slider = TRUE)

#####Ajuste STL

lexportaciones_ajus <- smooth_vec(lexportaciones,span = 0.75, degree = 2)
lexportaciones_tbl%>%dplyr::mutate(lexportaciones_ajus)

# A tibble: 282 × 3
   Fecha      lexportaciones lexportaciones_ajus
   <date>              <dbl>               <dbl>
 1 2000-01-01          1117.               1021.
 2 2000-02-01          1138.               1026.
 3 2000-03-01          1138.               1031.
 4 2000-04-01          1053.               1036.
 5 2000-05-01          1182.               1041.
 6 2000-06-01          1186.               1046.
 7 2000-07-01          1162.               1051.
 8 2000-08-01          1226.               1056.
 9 2000-09-01          1162.               1061.
10 2000-10-01          1102.               1067.
# ℹ 272 more rows
…
